\relax 
\providecommand\hyper@newdestlabel[2]{}
\providecommand\HyperFirstAtBeginDocument{\AtBeginDocument}
\HyperFirstAtBeginDocument{\ifx\hyper@anchor\@undefined
\global\let\oldcontentsline\contentsline
\gdef\contentsline#1#2#3#4{\oldcontentsline{#1}{#2}{#3}}
\global\let\oldnewlabel\newlabel
\gdef\newlabel#1#2{\newlabelxx{#1}#2}
\gdef\newlabelxx#1#2#3#4#5#6{\oldnewlabel{#1}{{#2}{#3}}}
\AtEndDocument{\ifx\hyper@anchor\@undefined
\let\contentsline\oldcontentsline
\let\newlabel\oldnewlabel
\fi}
\fi}
\global\let\hyper@last\relax 
\gdef\HyperFirstAtBeginDocument#1{#1}
\providecommand\HyField@AuxAddToFields[1]{}
\providecommand\HyField@AuxAddToCoFields[2]{}
\@writefile{toc}{\contentsline {section}{\numberline {1}Introduction}{1}{section.1}}
\@writefile{toc}{\contentsline {section}{\numberline {2}Credits}{1}{section.2}}
\@writefile{lof}{\contentsline {figure}{\numberline {1}{\ignorespaces HoloGen deployment folder\relax }}{4}{figure.caption.2}}
\providecommand*\caption@xref[2]{\@setref\relax\@undefined{#1}}
\newlabel{Capture003}{{1}{4}{HoloGen deployment folder\relax }{figure.caption.2}{}}
\@writefile{toc}{\contentsline {section}{\numberline {3}Getting Started}{4}{section.3}}
\@writefile{toc}{\contentsline {subsection}{\numberline {3.1}Installation}{4}{subsection.3.1}}
\@writefile{toc}{\contentsline {subsection}{\numberline {3.2}Menus}{4}{subsection.3.2}}
\@writefile{lof}{\contentsline {figure}{\numberline {2}{\ignorespaces HoloGen welcome screen\relax }}{5}{figure.caption.3}}
\newlabel{Capture100}{{2}{5}{HoloGen welcome screen\relax }{figure.caption.3}{}}
\@writefile{toc}{\contentsline {subsection}{\numberline {3.3}Setup}{5}{subsection.3.3}}
\@writefile{lof}{\contentsline {figure}{\numberline {3}{\ignorespaces HoloGen file menu\relax }}{6}{figure.caption.4}}
\newlabel{Capture101}{{3}{6}{HoloGen file menu\relax }{figure.caption.4}{}}
\@writefile{lof}{\contentsline {figure}{\numberline {4}{\ignorespaces HoloGen help menu\relax }}{6}{figure.caption.5}}
\newlabel{Capture102}{{4}{6}{HoloGen help menu\relax }{figure.caption.5}{}}
\@writefile{lof}{\contentsline {figure}{\numberline {5}{\ignorespaces HoloGen settings menu\relax }}{7}{figure.caption.6}}
\newlabel{Capture103}{{5}{7}{HoloGen settings menu\relax }{figure.caption.6}{}}
\@writefile{lof}{\contentsline {figure}{\numberline {6}{\ignorespaces HoloGen accents menu - 1\relax }}{7}{figure.caption.7}}
\newlabel{Capture104}{{6}{7}{HoloGen accents menu - 1\relax }{figure.caption.7}{}}
\@writefile{lof}{\contentsline {figure}{\numberline {7}{\ignorespaces HoloGen accents menu - 2\relax }}{8}{figure.caption.8}}
\newlabel{Capture105}{{7}{8}{HoloGen accents menu - 2\relax }{figure.caption.8}{}}
\@writefile{lof}{\contentsline {figure}{\numberline {8}{\ignorespaces HoloGen setup algorithm options\relax }}{8}{figure.caption.9}}
\newlabel{Capture106}{{8}{8}{HoloGen setup algorithm options\relax }{figure.caption.9}{}}
\@writefile{lof}{\contentsline {figure}{\numberline {9}{\ignorespaces HoloGen error reporting - 1\relax }}{9}{figure.caption.10}}
\newlabel{Capture107}{{9}{9}{HoloGen error reporting - 1\relax }{figure.caption.10}{}}
\@writefile{lof}{\contentsline {figure}{\numberline {10}{\ignorespaces HoloGen error reporting - 2\relax }}{9}{figure.caption.11}}
\newlabel{Capture108}{{10}{9}{HoloGen error reporting - 2\relax }{figure.caption.11}{}}
\@writefile{lof}{\contentsline {figure}{\numberline {11}{\ignorespaces HoloGen setup projector options\relax }}{10}{figure.caption.12}}
\newlabel{Capture109}{{11}{10}{HoloGen setup projector options\relax }{figure.caption.12}{}}
\@writefile{lof}{\contentsline {figure}{\numberline {12}{\ignorespaces HoloGen setup target options\relax }}{10}{figure.caption.13}}
\newlabel{Capture110}{{12}{10}{HoloGen setup target options\relax }{figure.caption.13}{}}
\@writefile{lof}{\contentsline {figure}{\numberline {13}{\ignorespaces HoloGen setup hardware options\relax }}{11}{figure.caption.14}}
\newlabel{Capture111}{{13}{11}{HoloGen setup hardware options\relax }{figure.caption.14}{}}
\@writefile{toc}{\contentsline {subsection}{\numberline {3.4}Image Viewer}{11}{subsection.3.4}}
\@writefile{toc}{\contentsline {subsection}{\numberline {3.5}Running a setup file}{11}{subsection.3.5}}
\@writefile{toc}{\contentsline {section}{\numberline {4}How Do I?}{11}{section.4}}
\@writefile{toc}{\contentsline {subsection}{\numberline {4.1}Change the Language}{11}{subsection.4.1}}
\@writefile{lof}{\contentsline {figure}{\numberline {14}{\ignorespaces HoloGen image viewer\relax }}{12}{figure.caption.15}}
\newlabel{Capture112}{{14}{12}{HoloGen image viewer\relax }{figure.caption.15}{}}
\@writefile{lof}{\contentsline {figure}{\numberline {15}{\ignorespaces HoloGen image viewer transforms\relax }}{12}{figure.caption.16}}
\newlabel{Capture113}{{15}{12}{HoloGen image viewer transforms\relax }{figure.caption.16}{}}
\@writefile{lof}{\contentsline {figure}{\numberline {16}{\ignorespaces HoloGen image viewer colour schemes\relax }}{13}{figure.caption.17}}
\newlabel{Capture114}{{16}{13}{HoloGen image viewer colour schemes\relax }{figure.caption.17}{}}
\@writefile{lof}{\contentsline {figure}{\numberline {17}{\ignorespaces HoloGen 3D image viewer\relax }}{13}{figure.caption.18}}
\newlabel{Capture115}{{17}{13}{HoloGen 3D image viewer\relax }{figure.caption.18}{}}
\@writefile{lof}{\contentsline {figure}{\numberline {18}{\ignorespaces HoloGen image masking\relax }}{14}{figure.caption.19}}
\newlabel{Capture116}{{18}{14}{HoloGen image masking\relax }{figure.caption.19}{}}
\@writefile{lof}{\contentsline {figure}{\numberline {19}{\ignorespaces HoloGen process view\relax }}{14}{figure.caption.20}}
\newlabel{Capture117}{{19}{14}{HoloGen process view\relax }{figure.caption.20}{}}
\@writefile{lof}{\contentsline {figure}{\numberline {20}{\ignorespaces Loading HoloGen from the command line\relax }}{15}{figure.caption.21}}
\newlabel{Capture002}{{20}{15}{Loading HoloGen from the command line\relax }{figure.caption.21}{}}
\@writefile{toc}{\contentsline {subsection}{\numberline {4.2}Import and Export Data}{15}{subsection.4.2}}
\newlabel{import}{{4.2}{15}{Import and Export Data}{subsection.4.2}{}}
\@writefile{lof}{\contentsline {figure}{\numberline {21}{\ignorespaces Loading HoloGen from the command line\relax }}{16}{figure.caption.22}}
\newlabel{Capture001}{{21}{16}{Loading HoloGen from the command line\relax }{figure.caption.22}{}}
\@writefile{lof}{\contentsline {figure}{\numberline {22}{\ignorespaces HoloGen data import and export\relax }}{16}{figure.caption.23}}
\newlabel{Capture119}{{22}{16}{HoloGen data import and export\relax }{figure.caption.23}{}}
\@writefile{lof}{\contentsline {figure}{\numberline {23}{\ignorespaces HoloGen metadata\relax }}{17}{figure.caption.24}}
\newlabel{Capture118}{{23}{17}{HoloGen metadata\relax }{figure.caption.24}{}}
\@writefile{toc}{\contentsline {subsection}{\numberline {4.3}Generate a Hologram?}{17}{subsection.4.3}}
\@writefile{toc}{\contentsline {subsection}{\numberline {4.4}View Metadata}{17}{subsection.4.4}}
\@writefile{toc}{\contentsline {subsection}{\numberline {4.5}Batch Processing}{17}{subsection.4.5}}
\@writefile{lof}{\contentsline {figure}{\numberline {24}{\ignorespaces HoloGen metadata\relax }}{18}{figure.caption.25}}
\newlabel{Capture121}{{24}{18}{HoloGen metadata\relax }{figure.caption.25}{}}
\@writefile{toc}{\contentsline {section}{\numberline {5}Further Information}{19}{section.5}}
\@writefile{toc}{\contentsline {subsection}{\numberline {5.1}Contributing}{19}{subsection.5.1}}
\@writefile{toc}{\contentsline {subsection}{\numberline {5.2}Learn More}{19}{subsection.5.2}}
